…
Now I am getting a closer look at the data.

    print(diagnose(df))

    ## # A tibble: 28 x 6
    ##    variables types   missing_count missing_percent unique_count unique_rate
    ##    <chr>     <chr>           <int>           <dbl>        <int>       <dbl>
    ##  1 X         POSIXct             0             0          10196    1       
    ##  2 X1        numeric          6673            65.4          102    0.0100  
    ##  3 X2        numeric          6673            65.4         1339    0.131   
    ##  4 X3        numeric          8106            79.5         1229    0.121   
    ##  5 X4        numeric          8106            79.5         1072    0.105   
    ##  6 X5        numeric          9184            90.1          146    0.0143  
    ##  7 X6        numeric          9184            90.1           80    0.00785 
    ##  8 X7        numeric          8216            80.6          136    0.0133  
    ##  9 X8        numeric          9274            91.0          200    0.0196  
    ## 10 X9        numeric         10088            98.9            4    0.000392
    ## # ... with 18 more rows
…
    range(Main_df$X)

    ## [1] "2018-04-19 08:36:03 EDT" "2019-02-13 07:17:36 EST"

<center>
**Begin Actual Analysis of Data**
</center>

How much missing data is there after combining all 100 .csv operating
blocks into one?

    diag_df<-diagnose(Main_df)
    diag_df

    ## # A tibble: 28 x 6
    ##    variables types   missing_count missing_percent unique_count unique_rate
    ##    <chr>     <chr>           <int>           <dbl>        <int>       <dbl>
    ##  1 X         POSIXct             0             0         755550   1        
    ##  2 X1        numeric        467540            61.9          102   0.000135 
    ##  3 X2        numeric        467540            61.9         5042   0.00667  
    ##  4 X3        numeric        461742            61.1         5479   0.00725  
    ##  5 X4        numeric        461742            61.1         2880   0.00381  
    ##  6 X5        numeric        538881            71.3          227   0.000300 
    ##  7 X6        numeric        538881            71.3          122   0.000161 
    ##  8 X7        numeric        465689            61.6         1390   0.00184  
    ##  9 X8        numeric        541641            71.7          766   0.00101  
    ## 10 X9        numeric        735120            97.3           53   0.0000701
    ## # ... with 18 more rows
…
